<svg xmlns="http://www.w3.org/2000/svg" width="62.109" height="31.575" viewBox="0 0 62.109 31.575">
  <g id="Group_86" data-name="Group 86" transform="translate(-324.211 -121.523)">
    <path id="Path_117" data-name="Path 117" d="M324.23,148.227c0-2.011.045-3.715-.018-5.414-.032-.873.566-1.08,1.132-1.375a142.45,142.45,0,0,1,38.108-13.514,133.921,133.921,0,0,1,21.628-2.606c1.3-.045,1.535.173.907,1.388q-4.677,9.052-9.224,18.174a2.548,2.548,0,0,1-2.029,1.442,41.463,41.463,0,0,1-20.505-.808,42.461,42.461,0,0,0-21.208-.959A29.6,29.6,0,0,0,324.23,148.227Zm29.524-11.392a1.9,1.9,0,0,0-1.993-2.034,1.964,1.964,0,0,0,.033,3.927A1.888,1.888,0,0,0,353.754,136.835Zm3.588.153a1.937,1.937,0,0,0,2.025-1.833,1.829,1.829,0,0,0-1.873-2.119,1.808,1.808,0,0,0-2.024,1.791C355.374,136.1,356.14,136.764,357.342,136.988Zm-8.578,1.5a1.926,1.926,0,0,0-1.915-1.88,1.953,1.953,0,0,0-.18,3.9C347.917,140.565,348.585,139.778,348.764,138.487Z"/>
    <path id="Path_118" data-name="Path 118" d="M366.466,124.9a121.094,121.094,0,0,0-24.727,7.7c-.9.376-1.78,1.063-2.333-.568-1-2.941-1.018-3.207.733-3.839,1.332-.481,2.676-.93,4-1.421.646-.239,1.231-.63.951-1.436-.274-.788-.945-.776-1.626-.566q-2.2.681-4.395,1.364c-.44.135-1.044.518-1.308.056-.659-1.152-1.664-1.112-2.732-1.076-.273.01-.636.055-.74-.307-.133-.466.286-.6.575-.754a21.615,21.615,0,0,1,7.251-2.188c7.475-1.025,14.7.347,21.869,2.283C364.82,124.38,365.64,124.652,366.466,124.9Z"/>
    <path id="Path_119" data-name="Path 119" d="M325.816,149.462a24.969,24.969,0,0,1,17.792-4.363c5.181.584,10.151,2.19,15.26,3.125a34.694,34.694,0,0,0,21.3-2.386,1,1,0,0,1,.665-.067,20.284,20.284,0,0,1-15.337,5.343c-5.765-.293-11.261-2.034-16.878-3.114-7.528-1.449-14.914-1.313-22.176,1.321A4.861,4.861,0,0,1,325.816,149.462Z"/>
    <path id="Path_120" data-name="Path 120" d="M356.584,152.531a26.785,26.785,0,0,1-13.478-.657c-5.671-1.745-11.32-2.242-17.249-.1,2.012-1.822,6.546-2.814,10.286-2.422a69.887,69.887,0,0,1,7.156,1.194A103.46,103.46,0,0,0,356.584,152.531Z"/>
  </g>
</svg>
