<svg xmlns="http://www.w3.org/2000/svg" width="20.386" height="18.347" viewBox="0 0 20.386 18.347">
  <g id="Group_18028" data-name="Group 18028" transform="translate(-75.319 -1015.562)">
    <path id="Path_6573" data-name="Path 6573" d="M64.637,449.692l-1.3-2.446a3.32,3.32,0,0,0-2.9-1.672,3.039,3.039,0,0,0-1.549.408l-6.768,3.669H50.082a3.271,3.271,0,0,0-3.262,3.262v7.746a3.27,3.27,0,0,0,3.262,3.262H63.944a3.271,3.271,0,0,0,3.262-3.262v-7.746a3.285,3.285,0,0,0-2.569-3.221m-4.77-1.918a1.015,1.015,0,0,1,.571-.163,1.175,1.175,0,0,1,1.06.652l.734,1.386H56.4Zm5.3,12.884a1.226,1.226,0,0,1-1.223,1.223H50.082a1.226,1.226,0,0,1-1.223-1.223v-7.745a1.226,1.226,0,0,1,1.223-1.223H63.944a1.226,1.226,0,0,1,1.223,1.223Z" transform="translate(28.499 569.988)" fill="#fff"/>
    <path id="Path_6574" data-name="Path 6574" d="M62.109,455.767H51.916a1.009,1.009,0,0,1-1.019-1v-.021a1.009,1.009,0,0,1,1-1.019H62.109a1.009,1.009,0,0,1,1.019,1v.02a1.037,1.037,0,0,1-1.019,1.02" transform="translate(28.499 569.988)" fill="#fff"/>
  </g>
</svg>
