<svg id="Group_9" data-name="Group 9" xmlns="http://www.w3.org/2000/svg" width="7.557" height="14.847" viewBox="0 0 7.557 14.847">
  <path id="Path_4" data-name="Path 4" d="M29.349,0,27.537,0C25.5,0,24.184,1.434,24.184,3.654V5.338H22.362a.294.294,0,0,0-.285.3V8.082a.294.294,0,0,0,.285.3h1.822v6.159a.294.294,0,0,0,.285.3h2.378a.294.294,0,0,0,.285-.3V8.385h2.131a.294.294,0,0,0,.285-.3V5.641a.313.313,0,0,0-.083-.214.277.277,0,0,0-.2-.089H27.132V3.91c0-.686.154-1.035,1-1.035h1.221a.294.294,0,0,0,.285-.3V.306A.294.294,0,0,0,29.349,0Z" transform="translate(-22.077)" fill="#fff"/>
</svg>
