<svg id="_002-facebook-logo" data-name="002-facebook-logo" xmlns="http://www.w3.org/2000/svg" width="4.511" height="8.344" viewBox="0 0 4.511 8.344">
  <path id="Path_70" data-name="Path 70" d="M26.418,0,25.336,0a1.9,1.9,0,0,0-2,2.053V3H22.247a.17.17,0,0,0-.17.17V4.542a.17.17,0,0,0,.17.17h1.088V8.173a.17.17,0,0,0,.17.17h1.419a.17.17,0,0,0,.17-.17V4.712h1.272a.17.17,0,0,0,.17-.17V3.17a.17.17,0,0,0-.17-.17H25.095V2.2c0-.386.092-.582.594-.582h.729a.17.17,0,0,0,.17-.17V.172A.17.17,0,0,0,26.418,0Z" transform="translate(-22.077)" fill="#fff"/>
</svg>
