<svg xmlns="http://www.w3.org/2000/svg" width="34.34" height="27.448" viewBox="0 0 34.34 27.448">
  <g id="Group_17864" data-name="Group 17864" transform="translate(-62.345 -878.276)">
    <path id="Path_8393" data-name="Path 8393" d="M33.984,23.2l-4.537-3.821V9.074H24.213v5.9l-6.4-5.388a1,1,0,0,0-1.288,0L.356,23.2a1,1,0,1,0,1.288,1.529L17.17,11.659,32.7,24.732A1,1,0,1,0,33.984,23.2" transform="translate(62.345 869.202)" fill="#bf7013"/>
    <path id="Path_8394" data-name="Path 8394" d="M4.809,24.777V36.522h9.7V28.415h5.681v8.107h9.255V25.288L17.171,15.2Z" transform="translate(62.345 869.202)" fill="#bf7013"/>
  </g>
</svg>
