<svg id="Group_17649" data-name="Group 17649" xmlns="http://www.w3.org/2000/svg" xmlns:xlink="http://www.w3.org/1999/xlink" width="89.8" height="89.805" viewBox="0 0 89.8 89.805">
  <defs>
    <clipPath id="clip-path">
      <rect id="Rectangle_6254" data-name="Rectangle 6254" width="89.8" height="89.805" fill="#bc7f09"/>
    </clipPath>
  </defs>
  <g id="Group_17648" data-name="Group 17648" clip-path="url(#clip-path)">
    <path id="Path_8325" data-name="Path 8325" d="M31.045,0a12.142,12.142,0,0,1,1.23.8A2.8,2.8,0,0,1,32.2,4.878Q29.713,7.416,27.172,9.9a1.63,1.63,0,0,0-.525,1.3c.018,4.385.027,8.77-.007,13.154-.005.712.147.936.9.926,3.3-.045,6.606-.02,9.909-.019,2.182,0,3.238,1.044,3.241,3.2,0,1.023.04,2.048-.014,3.068-.034.639.2.807.792.759s1.227-.018,1.841-.009c1.094.016,1.583.509,1.589,1.624q.013,2.587,0,5.174c-.006,1.109-.5,1.593-1.6,1.613-1.265.023-1.28.022-1.348,1.231-.2,3.53-.367,7.061-.588,10.59-.042.665.134.832.8.829,5.934-.026,11.87.078,17.8-.042A9.889,9.889,0,0,1,70.138,63.519c-.04.846.183,1.085,1.039,1.051a2.81,2.81,0,0,1,3.178,2.441c.157,1.644-.842,2.839-2.737,3.2a5.361,5.361,0,0,1,1.346,3.419A4.676,4.676,0,0,1,70.79,77.7a1.23,1.23,0,0,0-.642,1.269A10.016,10.016,0,0,1,67.4,86.815c.128.292.365.178.543.178,4.882.007,9.763.016,14.645,0a4.243,4.243,0,0,0,4.328-3.474c.126-.588.013-.753-.6-.749-3.741.024-7.483.012-11.225.012-.234,0-.468.009-.7,0a1.37,1.37,0,0,1-1.417-1.443,1.346,1.346,0,0,1,1.419-1.348c1.578-.021,3.157-.007,4.735-.007,2.309,0,4.619-.033,6.928.019.755.017.971-.155.968-.947C86.987,70.577,87,62.1,87,53.623q0-13.154,0-26.308c0-3.2-1.663-4.867-4.856-4.867q-13.417,0-26.834,0c-3.116,0-4.8,1.7-4.8,4.837q0,10.655,0,21.31a4.716,4.716,0,0,1-.023.788A1.364,1.364,0,0,1,49.034,50.5a1.322,1.322,0,0,1-1.307-1.187,3.892,3.892,0,0,1-.016-.7q0-10.83,0-21.661a6.973,6.973,0,0,1,7.329-7.31q13.724,0,27.448,0a6.972,6.972,0,0,1,7.31,7.329q0,27.755,0,55.51a6.978,6.978,0,0,1-7.331,7.31q-21.441,0-42.882,0a6.161,6.161,0,0,1-2.084-.192c-.763-.272-1.418.2-2.139.2-8.623-.011-17.246,0-25.87-.015a4.178,4.178,0,0,1-4.044-3.961q-.8-14.221-1.606-28.441-.434-7.657-.875-15.314c-.008-.146-.036-.292-.03-.437.027-.7-.192-1.1-1-.956A1.792,1.792,0,0,1,0,39.814V33.149a1.9,1.9,0,0,1,1.935-.883c.55.05,1.111-.023,1.662.019.522.04.637-.178.624-.654-.029-1.109-.012-2.218-.009-3.328A2.79,2.79,0,0,1,7.251,25.26c3.853,0,7.706-.021,11.559.017.711.007.855-.213.852-.878-.026-5.2,0-10.391-.026-15.587a2.19,2.19,0,0,1,.7-1.7Q23.12,4.382,25.851,1.6A7.633,7.633,0,0,1,27.888,0Zm-2.99,70.189a2.841,2.841,0,0,1-2.38-1.36A2.627,2.627,0,0,1,25.608,66a2.738,2.738,0,0,1,2.6-1.46c1.258.015,1.258,0,1.261-1.22,0-.088,0-.176,0-.263A9.728,9.728,0,0,1,37.6,53.495a.938.938,0,0,0,.934-1.056c.176-3.588.368-7.176.606-10.761.053-.8-.157-1.011-.97-1.009q-15.737.044-31.474,0c-.753,0-1,.14-.945.949.275,4.138.49,8.281.723,12.422q.382,6.781.76,13.561c.33,5.8.676,11.606.994,17.41.084,1.535.5,1.985,2.017,1.985q10.608,0,21.216-.005c.242,0,.516.107.765-.132a12.772,12.772,0,0,1-1.667-2.345,10.466,10.466,0,0,1-1.087-5.6,1.126,1.126,0,0,0-.608-1.2,4.481,4.481,0,0,1-2.049-2.834,5.007,5.007,0,0,1,1.236-4.7m41.536-2.84H42.709c-1.386,0-2-.419-2.012-1.377-.015-.992.607-1.423,2.052-1.423h5.174c6.2,0,12.394-.013,18.59.017.705,0,.859-.2.857-.875-.013-4.534-2.984-7.562-7.491-7.566q-10.085-.009-20.169,0a7.162,7.162,0,0,0-7.454,7.863c.025.488.2.575.626.567,1.139-.021,2.28-.015,3.42,0,.98.009,1.563.526,1.578,1.37.015.882-.581,1.411-1.612,1.426-.321,0-.643,0-.965,0H29.917c1.352,1,2.591,1.913,3.825,2.832,1.285.959,1.439.969,2.788.113a4.094,4.094,0,0,1,5.176.309,1.782,1.782,0,0,0,1.935.353c1.43-.5,2.883-.937,4.307-1.455a4.336,4.336,0,0,1,4.975,1.061,1.447,1.447,0,0,0,1.756.329c.994-.42,2-.819,3-1.2a7.19,7.19,0,0,1,2.006-.586,5.149,5.149,0,0,1,3.395,1.178c1.281.885,1.524.853,2.78-.106,1.217-.929,2.441-1.849,3.729-2.825M22.412,37.888h17.8c1.9,0,1.859,0,1.907-1.915.018-.726-.172-.918-.908-.915-8.387.028-16.775.018-25.162.017a6.311,6.311,0,0,1-.788-.012,1.4,1.4,0,0,1-.981-2.192,1.589,1.589,0,0,1,1.464-.6q9.162.015,18.324.006c1.081,0,2.163-.022,3.244.009.471.013.6-.151.589-.6a23.992,23.992,0,0,1,.007-2.629c.059-.781-.162-1.017-.985-1.014-9.147.033-18.295.02-27.442.02-.643,0-1.287.022-1.929-.007-.429-.019-.551.148-.542.558.022,1.022.026,2.046,0,3.068-.012.446.109.632.585.605.641-.037,1.285-.012,1.928-.008,1.11.007,1.716.516,1.7,1.423-.014.873-.606,1.37-1.663,1.374-1.607.006-3.215,0-4.822,0-1.942,0-1.911,0-1.948,1.959-.013.684.168.873.863.87,6.254-.028,12.508-.016,18.762-.016M49.813,87c3.476,0,6.952.028,10.428-.007a7.043,7.043,0,0,0,7.1-6.688c.115-1.729.115-1.729-1.618-1.729h-.7c-1.794,0-1.794,0-1.886,1.745a4.224,4.224,0,0,1-8.4.15c-.061-.623.306-1.475-.2-1.808-.452-.3-1.244-.086-1.886-.086-6.485,0-12.969.009-19.454-.016-.683,0-.947.1-.942.879.026,4.577,2.98,7.558,7.574,7.561q4.995,0,9.99,0M42.8,75.773H53.49c1.293,0,1.274,0,1.246-1.339-.009-.44-.092-.616-.586-.578a3.886,3.886,0,0,1-3.222-1.287,1.654,1.654,0,0,0-1.912-.424c-1.545.525-3.1,1.012-4.641,1.553a4.131,4.131,0,0,1-4.392-.855A1.462,1.462,0,0,0,38,72.727a5.5,5.5,0,0,1-2.046.946,4.946,4.946,0,0,1-4.159-1.4c-.951-.759-1.716-.506-2.162.655a2.108,2.108,0,0,0,2.211,2.835c3.652.018,7.3.005,10.957.006M30.2,2.907a2.084,2.084,0,0,0-2.3.632c-1.6,1.7-3.276,3.329-4.944,4.964a1.542,1.542,0,0,0-.522,1.213q.028,7.357,0,14.714c0,.508-.027.865.7.859.678-.006.731-.28.729-.83-.017-4.7,0-9.4-.024-14.1a2.449,2.449,0,0,1,.788-1.933c1.846-1.786,3.652-3.613,5.567-5.517M61.75,72.9a2.252,2.252,0,0,0-3.1-.542,1.936,1.936,0,0,1-.567.227c-.455.1-.572.371-.567.819.021,2.073,0,4.147.012,6.221,0,1.081.57,1.761,1.42,1.748s1.382-.691,1.387-1.783c.008-1.636,0-3.271,0-4.907,0-1.118.279-1.465,1.41-1.784m1.292.653c.274,1.7.741,2.316,1.651,2.2.943-.123,1.38-.949,1.162-2.239a5.235,5.235,0,0,1-2.813.041m5.579,2.01a1.932,1.932,0,0,0,1.531-1.857,1.889,1.889,0,0,0-1.37-1.867,31.454,31.454,0,0,1-.161,3.724" transform="translate(0 0.001)" fill="#bc7f09"/>
    <path id="Path_8326" data-name="Path 8326" d="M275.078,110.591c-1.34,0-2.681.008-4.021,0a1.381,1.381,0,0,1-1.56-1.379,1.363,1.363,0,0,1,1.524-1.413q4.064-.017,8.128,0a1.378,1.378,0,0,1,1.562,1.378c.01.877-.586,1.41-1.612,1.416-1.34.009-2.681,0-4.021,0" transform="translate(-206.349 -82.531)" fill="#bc7f09"/>
    <path id="Path_8327" data-name="Path 8327" d="M151.818,254.322c-1.459,0-2.068-.4-2.088-1.368-.021-1.009.6-1.432,2.109-1.432,1.46,0,2.069.4,2.089,1.367.021,1.008-.6,1.434-2.11,1.434" transform="translate(-114.646 -192.586)" fill="#bc7f09"/>
    <path id="Path_8328" data-name="Path 8328" d="M187.805,251.512a4.836,4.836,0,0,1,.869.008,1.3,1.3,0,0,1,1.179,1.382,1.277,1.277,0,0,1-1.184,1.373,8.931,8.931,0,0,1-1.651.017,1.394,1.394,0,0,1,0-2.788c.26-.016.522,0,.783,0v.009" transform="translate(-142.157 -192.565)" fill="#bc7f09"/>
    <path id="Path_8329" data-name="Path 8329" d="M223.732,251.512a4.881,4.881,0,0,1,.869.008,1.3,1.3,0,0,1,1.181,1.38,1.276,1.276,0,0,1-1.181,1.376,8.849,8.849,0,0,1-1.651.018,1.394,1.394,0,0,1,0-2.788c.26-.016.522,0,.783,0v.009" transform="translate(-169.668 -192.565)" fill="#bc7f09"/>
    <path id="Path_8330" data-name="Path 8330" d="M259.682,254.278c-.29,0-.582.02-.87,0a1.395,1.395,0,0,1,.047-2.784,14.49,14.49,0,0,1,1.479,0,1.4,1.4,0,0,1,.04,2.789c-.231.017-.464,0-.7,0" transform="translate(-197.179 -192.546)" fill="#bc7f09"/>
  </g>
</svg>
