<svg id="Group_17651" data-name="Group 17651" xmlns="http://www.w3.org/2000/svg" xmlns:xlink="http://www.w3.org/1999/xlink" width="94.6" height="80.456" viewBox="0 0 94.6 80.456">
  <defs>
    <clipPath id="clip-path">
      <rect id="Rectangle_6255" data-name="Rectangle 6255" width="94.6" height="80.456" fill="#bc7f09"/>
    </clipPath>
  </defs>
  <g id="Group_17650" data-name="Group 17650" clip-path="url(#clip-path)">
    <path id="Path_8331" data-name="Path 8331" d="M94.6,62.067c-.253,1.13-.457,2.273-.767,3.386a20.644,20.644,0,0,1-40.183-2,10.8,10.8,0,0,1-.232-2.289c.027-.928-.231-1.335-1.236-1.233a27.542,27.542,0,0,1-2.769.02q-19.723,0-39.445,0a9.827,9.827,0,0,1-6.093-1.753A9.02,9.02,0,0,1,0,50.623Q0,30.023,0,9.423A9.172,9.172,0,0,1,9.153.043C17.5-.035,25.842.015,34.186.026A1.861,1.861,0,0,1,36.25,1.9a1.829,1.829,0,0,1-1.976,1.864c-1.754.047-3.51.018-5.265.018-6.374,0-12.75.092-19.121-.034a5.9,5.9,0,0,0-6.23,6.28c.083,13.425.031,26.85.036,40.276a5.545,5.545,0,0,0,4.348,5.752,6.909,6.909,0,0,0,1.557.125q21.57.01,43.14.014c.623,0,.936-.078,1.1-.83A20.655,20.655,0,0,1,71.167,39.389,20.409,20.409,0,0,1,82.595,41.1c.271.123.513.35.888.289.011-.238.033-.478.033-.717q0-15.519,0-31.038A5.567,5.567,0,0,0,79.4,3.967a7.684,7.684,0,0,0-2.107-.18q-12.655,0-25.311-.005A7.229,7.229,0,0,1,50.693,3.7a1.821,1.821,0,0,1-1.518-1.73,1.892,1.892,0,0,1,1.3-1.823A3.141,3.141,0,0,1,51.567.019q13.025,0,26.05,0a9.252,9.252,0,0,1,9.587,9.611q0,16.72-.013,33.44a1.91,1.91,0,0,0,.7,1.572,20.2,20.2,0,0,1,6.528,12.482.709.709,0,0,0,.183.5v4.434M73.976,76.742a16.893,16.893,0,1,0-16.9-16.895,16.945,16.945,0,0,0,16.9,16.895" transform="translate(0 0)" fill="#bc7f09"/>
    <path id="Path_8332" data-name="Path 8332" d="M47.335,85.775A17.4,17.4,0,1,1,64.68,68.27a17.4,17.4,0,0,1-17.344,17.5m11.328-9.939a13.605,13.605,0,1,0-22.729-.052c1.844-2.91,1.84-2.917,5.28-5.02.3-.183.311-.32.165-.571a9.02,9.02,0,0,1-.853-5.022,6.779,6.779,0,0,1,6.147-6.7,6.626,6.626,0,0,1,7.147,4.982,9.461,9.461,0,0,1-.493,6.579c-.206.421-.211.6.265.807a9.846,9.846,0,0,1,5.071,5M47.586,73.709c-.974,0-1.744-.021-2.512,0a6.176,6.176,0,0,0-5.992,4.46,1.13,1.13,0,0,0,.5,1.463,13.764,13.764,0,0,0,15.51-.028,1.068,1.068,0,0,0,.494-1.311A6.133,6.133,0,0,0,50.512,73.8a26.705,26.705,0,0,0-2.926-.1m2.786-7.6-.057,0c0-.4.027-.8,0-1.2a3.006,3.006,0,0,0-5.985-.014,17.7,17.7,0,0,0,0,2.4,2.97,2.97,0,0,0,2.7,2.692,3.037,3.037,0,0,0,3.208-2.222,11.178,11.178,0,0,0,.134-1.651" transform="translate(-22.558 -38.396)" fill="#bc7f09"/>
    <path id="Path_8333" data-name="Path 8333" d="M203.4,74.805H189.461c-2.474,0-2.932-.466-2.932-2.98q0-2.816,0-5.632c0-1.854.658-2.525,2.478-2.525q14.4,0,28.806,0c1.722,0,2.414.68,2.423,2.392.011,2.062.006,4.124,0,6.186,0,1.943-.6,2.555-2.525,2.557q-7.155.006-14.311,0m0-3.747c3.477,0,6.955.013,10.432-.009.85-.005,1.96.383,2.48-.172s.075-1.647.165-2.5c.08-.764-.185-.986-.961-.983q-12.14.041-24.28,0c-.693,0-1.027.148-.949.913a9.357,9.357,0,0,1,0,1.844c-.073.742.213.921.928.915,4.062-.033,8.124-.016,12.186-.016" transform="translate(-140.485 -47.951)" fill="#bc7f09"/>
    <path id="Path_8334" data-name="Path 8334" d="M203.416,132.584q-7.108,0-14.216,0c-1.711,0-2.644-.688-2.617-1.912.027-1.2.939-1.852,2.585-1.852h28.525a6.448,6.448,0,0,1,.83.021,1.894,1.894,0,0,1,1.733,1.844,1.858,1.858,0,0,1-1.7,1.853,7.4,7.4,0,0,1-1.012.045q-7.062,0-14.124,0" transform="translate(-140.527 -97.019)" fill="#bc7f09"/>
    <path id="Path_8335" data-name="Path 8335" d="M191.557,167.808c-.92,0-1.842.019-2.762,0-1.373-.035-2.254-.824-2.211-1.943.042-1.1.9-1.815,2.23-1.823q2.761-.017,5.523,0c1.344.009,2.163.714,2.179,1.841.017,1.142-.766,1.877-2.106,1.922-.95.031-1.9.006-2.853.007" transform="translate(-140.527 -123.54)" fill="#bc7f09"/>
    <path id="Path_8336" data-name="Path 8336" d="M169.233,1.987a1.817,1.817,0,0,1-1.861,1.849,1.877,1.877,0,0,1-1.844-1.8A1.932,1.932,0,0,1,167.37.118a1.867,1.867,0,0,1,1.863,1.869" transform="translate(-124.669 -0.089)" fill="#bc7f09"/>
    <path id="Path_8337" data-name="Path 8337" d="M254.981,195.622c.747-.077,1.8.342,2.471-.162s.626-1.609.938-2.436c.238-.63.394-1.292.625-1.925a3.149,3.149,0,0,1,3.007-2.171,3.1,3.1,0,0,1,2.936,2.136q.671,1.859,1.221,3.762a.926.926,0,0,0,1.086.813c1.259-.057,2.522-.033,3.783-.011a3.138,3.138,0,0,1,1.878,5.761c-1,.763-2.022,1.507-3.064,2.214a.871.871,0,0,0-.409,1.212c.451,1.205.822,2.442,1.2,3.674a3.131,3.131,0,0,1-4.824,3.567c-1.116-.764-2.206-1.566-3.28-2.388a.711.711,0,0,0-1.029.006c-1.048.805-2.121,1.578-3.2,2.34a3.143,3.143,0,0,1-4.906-3.57c.38-1.23.747-2.467,1.2-3.673a.816.816,0,0,0-.378-1.136c-1.04-.711-2.056-1.458-3.069-2.208a3.137,3.137,0,0,1,1.841-5.8c.615-.014,1.23,0,1.981,0m7.025-1.639c-.458,1.417-.821,2.552-1.191,3.684a2.041,2.041,0,0,1-2.3,1.683c-1.185.006-2.37,0-3.555,0a25.484,25.484,0,0,0,2.82,2.261,2,2,0,0,1,.877,2.706c-.365,1.159-.738,2.316-1.176,3.692,1.16-.839,2.129-1.537,3.1-2.237,1.176-.852,1.721-.859,2.905-.016.958.682,1.91,1.375,3.084,2.222-.452-1.4-.821-2.53-1.184-3.663a1.976,1.976,0,0,1,.883-2.692c.949-.7,1.9-1.39,2.856-2.085a20.461,20.461,0,0,0-3.349-.189c-1.68,0-2.141-.337-2.666-1.949-.341-1.049-.676-2.1-1.1-3.418" transform="translate(-188.038 -142.293)" fill="#bc7f09"/>
  </g>
</svg>
