<svg xmlns="http://www.w3.org/2000/svg" xmlns:xlink="http://www.w3.org/1999/xlink" width="83.591" height="96.943" viewBox="0 0 83.591 96.943">
  <defs>
    <clipPath id="clip-path">
      <rect id="Rectangle_6253" data-name="Rectangle 6253" width="83.591" height="96.943" fill="#bc7f09"/>
    </clipPath>
  </defs>
  <g id="Group_17647" data-name="Group 17647" transform="translate(0 0.001)">
    <g id="Group_17646" data-name="Group 17646" transform="translate(0 -0.001)" clip-path="url(#clip-path)">
      <path id="Path_8323" data-name="Path 8323" d="M35.293,96.942H7.3a7.233,7.233,0,0,1-7.28-6.648,14.657,14.657,0,0,1,.121-2.573c.137-1.61.285-3.22.428-4.83q.241-2.708.483-5.416.208-2.345.414-4.69.241-2.722.484-5.444.207-2.331.412-4.663.244-2.75.489-5.5c.139-1.573.273-3.146.412-4.719q.238-2.694.481-5.388.236-2.652.469-5.3Q4.46,39.032,4.7,36.3c.138-1.554.3-3.107.406-4.663a7.23,7.23,0,0,1,6.017-6.548,9.13,9.13,0,0,1,1.368-.1c3.048,0,6.1,0,9.143.008.265,0,.318-.079.319-.327,0-1.1-.046-2.206.034-3.308A13.344,13.344,0,0,1,33.478,9.065a11.434,11.434,0,0,1,2.041-.117.284.284,0,0,0,.321-.222A12.963,12.963,0,0,1,45.768.269,13.322,13.322,0,0,1,61.385,10.7a17.4,17.4,0,0,1,.265,3.543c-.006.523.008,1.047-.006,1.57-.005.2.064.248.255.247,1.168-.008,2.337,0,3.506,0h5.861a7.208,7.208,0,0,1,7.228,6.721c.172,2.217.4,4.429.591,6.644s.386,4.449.583,6.673c.215,2.429.438,4.857.653,7.286.234,2.643.46,5.286.694,7.929q.378,4.271.764,8.542c.235,2.652.461,5.305.7,7.957.289,3.257.591,6.513.87,9.77.092,1.07.245,2.137.245,3.213a7.217,7.217,0,0,1-5.729,7.058,7.475,7.475,0,0,1-1.558.163c-1.86,0-3.721,0-5.581,0-.232,0-.323.022-.285.3a7.578,7.578,0,0,1-.544,4.36,7.134,7.134,0,0,1-5.8,4.222,7.4,7.4,0,0,1-1.007.047H35.293m-.022-3.2H63.287a4.051,4.051,0,0,0,3.893-2.908,6.148,6.148,0,0,0,.066-2.365q-.321-3.629-.648-7.258c-.178-2.01-.349-4.021-.527-6.031-.2-2.215-.4-4.429-.6-6.644-.178-2.01-.349-4.021-.527-6.031q-.322-3.629-.65-7.258c-.178-2.01-.348-4.021-.526-6.031q-.406-4.578-.819-9.156-.367-4.118-.73-8.235a4,4,0,0,0-2.95-3.5,5.41,5.41,0,0,0-1.444-.148q-4.473,0-8.946,0c-.136,0-.3-.062-.3.2q.011,2.412,0,4.824c0,.149.054.194.2.191.308-.008.617-.006.925,0a2.741,2.741,0,0,1,2.7,2.442c.1,1.136.034,2.279.026,3.419a1.405,1.405,0,0,1-.355.9,1.587,1.587,0,0,1-1.746.5,1.554,1.554,0,0,1-1.078-1.458c-.018-.785-.012-1.57,0-2.355,0-.194-.053-.255-.251-.254q-2.019.012-4.038,0c-.207,0-.245.073-.243.259.009.757.006,1.514,0,2.271a1.6,1.6,0,1,1-3.192.052c-.017-1.028-.022-2.057,0-3.085a2.772,2.772,0,0,1,2.288-2.645,5.775,5.775,0,0,1,1.23-.038c.261.007.349-.051.346-.333q-.023-2.285,0-4.571c0-.27-.086-.318-.331-.317q-4.823.011-9.647,0a2.341,2.341,0,0,1-.447-.027,1.6,1.6,0,0,1,.285-3.166c1.1-.01,2.206,0,3.309,0,2.178,0,4.356,0,6.534.005.232,0,.3-.059.3-.294-.015-.766-.006-1.533-.005-2.3a10.946,10.946,0,0,0-.212-2.172,10.117,10.117,0,0,0-16.3-5.793,9.9,9.9,0,0,0-3.727,7.888c-.023,3.58-.005,7.161-.005,10.741a1.3,1.3,0,0,1,0,.14c-.016.15.055.194.2.191.29-.007.58,0,.869,0a2.784,2.784,0,0,1,2.8,2.769c.009.981.006,1.963,0,2.945a1.6,1.6,0,1,1-3.2-.015c0-.748-.009-1.5,0-2.243,0-.214-.062-.265-.268-.264q-1.991.013-3.982,0c-.23,0-.28.075-.277.286.011.757.019,1.515,0,2.271a1.594,1.594,0,1,1-3.189-.031c-.011-.981-.014-1.963,0-2.945a2.765,2.765,0,0,1,2.344-2.737,6.3,6.3,0,0,1,1.231-.03c.227,0,.279-.07.278-.285q-.013-2.328,0-4.655c0-.222-.06-.28-.281-.28-3.132.007-6.263,0-9.395.006a4.023,4.023,0,0,0-3.853,2.991,8.817,8.817,0,0,0-.188,1.471Q7.968,35.7,7.7,38.758q-.208,2.345-.415,4.69-.267,3-.535,6-.238,2.694-.473,5.389T5.793,60.2c-.14,1.582-.275,3.164-.416,4.746q-.266,3-.537,6c-.159,1.8-.312,3.593-.471,5.389q-.295,3.322-.6,6.643-.248,2.778-.491,5.556a7.094,7.094,0,0,0-.051,1.705,4.032,4.032,0,0,0,4.107,3.506H35.271M73.446,84.82h2.86a4.073,4.073,0,0,0,4.073-4.59c-.193-1.792-.33-3.59-.489-5.386-.177-2-.348-4-.525-6s-.363-4.019-.541-6.029-.348-4-.525-6Q78,53.488,77.7,50.166c-.177-2-.347-4-.525-6q-.323-3.643-.652-7.285c-.178-2.01-.348-4.021-.526-6.031-.235-2.652-.482-5.3-.709-7.955a4.036,4.036,0,0,0-3.371-3.583,18.383,18.383,0,0,0-2.464-.049c-2.505-.01-5.01,0-7.515-.009-.228,0-.312.051-.3.291.02.373.014.748,0,1.121a1.6,1.6,0,0,1-3.193-.034c0-.365-.012-.73,0-1.093.01-.217-.051-.288-.278-.285q-1.542.018-3.085,0a1.6,1.6,0,1,1,.03-3.194c.851,0,1.7,0,2.552,0,.249,0,.571.111.727-.052s.049-.481.047-.731a23.479,23.479,0,0,0-.117-3.471A10.086,10.086,0,0,0,47.418,3.272,9.838,9.838,0,0,0,39.09,9.2c-.1.214-.08.287.155.359a12.72,12.72,0,0,1,4.627,2.554A13.124,13.124,0,0,1,48.54,21.3c.089,1.12.033,2.242.037,3.363,0,.257.068.323.324.322q4.557-.014,9.114,0c.3,0,.6.013.9.039A7.123,7.123,0,0,1,65.295,30.8c.3,1.692.341,3.419.507,5.129.152,1.571.277,3.145.416,4.718q.242,2.736.487,5.471.208,2.345.413,4.69.24,2.708.483,5.415.209,2.359.415,4.718.267,3.015.537,6.029c.158,1.787.311,3.574.47,5.36q.294,3.308.593,6.615c.167,1.87.338,3.74.492,5.611.02.238.114.264.311.262,1.01-.007,2.019,0,3.029,0" transform="translate(0 0.001)" fill="#bc7f09"/>
      <path id="Path_8324" data-name="Path 8324" d="M189.745,782.9a.894.894,0,0,0-.129-.4q-1.763-4.261-3.929-8.332c-.11-.208-.2-.255-.425-.162a4.555,4.555,0,0,1-1.809.441,3.524,3.524,0,0,1-3.3-2.268q-1.038-2.751-2.049-5.512a3.5,3.5,0,0,1,2.084-4.534q7.658-2.863,15.324-5.707a3.506,3.506,0,0,1,4.539,2.075q1.028,2.725,2.033,5.458a3.527,3.527,0,0,1-2.077,4.565,6.063,6.063,0,0,1-.579.209c-.211.057-.267.15-.216.376a97.553,97.553,0,0,0,4.007,13.167.289.289,0,0,0,.366.225q1.375-.178,2.755-.326c.249-.027.372-.094.354-.388a4.322,4.322,0,0,1,.2-1.769,3.5,3.5,0,0,1,3.306-2.336q2.945-.009,5.889,0a3.49,3.49,0,0,1,3.5,3.493q.01,8.2,0,16.406a3.494,3.494,0,0,1-3.514,3.506q-2.9,0-5.805,0a3.526,3.526,0,0,1-3.584-3.533,4.667,4.667,0,0,1,0-.588c.028-.247-.067-.337-.309-.368-2.81-.353-5.627-.617-8.457-.742-2.514-.111-5.027-.13-7.541-.036-2.858.107-5.708.324-8.545.7-.269.035-.537.072-.807.1-.174.015-.231.088-.227.266a5.937,5.937,0,0,1-.094,1.478,3.508,3.508,0,0,1-3.4,2.729q-2.959.006-5.917,0a3.5,3.5,0,0,1-3.486-3.362c-.01-.261-.009-.523-.009-.785q0-7.81,0-15.62a3.521,3.521,0,0,1,2.454-3.476,3.484,3.484,0,0,1,1.075-.162q2.9,0,5.805,0a3.526,3.526,0,0,1,3.574,3.487,5.036,5.036,0,0,1,0,.672c-.026.237.078.3.29.327.77.086,1.539.192,2.309.276q2.9.313,5.811.456c.176.009.353,0,.534,0m16.938,6.484c0-1.252,0-2.5,0-3.757,0-.2-.034-.28-.261-.25-1.889.252-3.784.437-5.685.575-2.882.208-5.767.3-8.655.245a96.524,96.524,0,0,1-11.005-.816c-.2-.027-.277.005-.276.235q.012,3.771,0,7.542c0,.234.082.258.277.231,1.194-.163,2.392-.285,3.591-.4,2.541-.246,5.087-.378,7.638-.416a96.888,96.888,0,0,1,14.089.816c.209.027.292-.005.289-.246-.012-1.252-.006-2.5-.006-3.757m-23.2-18.137c.053-.016.143-.039.229-.071l15.03-5.6c.376-.14.434-.262.295-.635q-.961-2.585-1.926-5.168c-.146-.392-.257-.44-.657-.291l-4.171,1.553-10.833,4.035c-.377.141-.432.26-.294.635.184.5.372,1,.558,1.495q.695,1.862,1.388,3.725c.062.167.137.309.382.32M171.1,789.356q0,4.01,0,8.02c0,.45.065.513.523.513h5.468c.432,0,.52-.089.52-.527q0-7.978,0-15.956c0-.439-.088-.529-.521-.529h-5.44c-.5,0-.551.054-.551.544q0,3.968,0,7.936m45.3.042q0-3.982,0-7.964c0-.494-.061-.557-.54-.557h-5.468c-.413,0-.5.092-.5.516,0,.748.006,1.5.006,2.243q0,6.856-.006,13.713c0,.459.082.541.534.541h5.412c.515,0,.566-.05.566-.556q0-3.968,0-7.936m-19.948-6.386c1.084-.076,2.166-.132,3.248-.19.3-.016.273-.113.192-.328a97.461,97.461,0,0,1-3.694-12.268c-.051-.221-.121-.239-.316-.166q-3.539,1.327-7.083,2.638c-.17.063-.211.12-.119.295a96.654,96.654,0,0,1,4.5,9.79.317.317,0,0,0,.352.233c.972-.008,1.943,0,2.915,0" transform="translate(-158.477 -713.783)" fill="#bc7f09"/>
    </g>
  </g>
</svg>
