<svg id="instagram_1_" data-name="instagram (1)" xmlns="http://www.w3.org/2000/svg" width="8.427" height="8.427" viewBox="0 0 8.427 8.427">
  <path id="Path_74" data-name="Path 74" d="M5.917,0H2.51A2.513,2.513,0,0,0,0,2.51V5.917a2.513,2.513,0,0,0,2.51,2.51H5.917a2.513,2.513,0,0,0,2.51-2.51V2.51A2.513,2.513,0,0,0,5.917,0ZM7.579,5.917A1.663,1.663,0,0,1,5.917,7.579H2.51A1.663,1.663,0,0,1,.848,5.917V2.51A1.663,1.663,0,0,1,2.51.848H5.917A1.663,1.663,0,0,1,7.579,2.51V5.917Z" transform="translate(0 0)" fill="#fff"/>
  <path id="Path_75" data-name="Path 75" d="M135.18,133a2.18,2.18,0,1,0,2.18,2.18A2.182,2.182,0,0,0,135.18,133Zm0,3.511a1.332,1.332,0,1,1,1.332-1.332A1.332,1.332,0,0,1,135.18,136.511Z" transform="translate(-130.966 -130.966)" fill="#fff"/>
  <ellipse id="Ellipse_5" data-name="Ellipse 5" cx="0.522" cy="0.522" rx="0.522" ry="0.522" transform="translate(5.875 1.528)" fill="#fff"/>
</svg>
