<svg xmlns="http://www.w3.org/2000/svg" width="7.507" height="7.173" viewBox="0 0 7.507 7.173">
  <path id="LinkedIn" d="M7.507,13.956v2.775H5.9V14.142c0-.65-.233-1.094-.815-1.094a.88.88,0,0,0-.826.589,1.1,1.1,0,0,0-.053.392v2.7H2.594s.022-4.386,0-4.84H4.2v.686l-.011.016H4.2v-.016a1.6,1.6,0,0,1,1.45-.8C6.713,11.777,7.507,12.469,7.507,13.956Zm-6.6-4.4a.839.839,0,1,0-.021,1.673H.9A.839.839,0,1,0,.911,9.558ZM.1,16.731H1.7v-4.84H.1Z" transform="translate(0 -9.558)" fill="#fff"/>
</svg>
