<svg id="_005-youtube" data-name="005-youtube" xmlns="http://www.w3.org/2000/svg" width="9.4" height="6.462" viewBox="0 0 9.4 6.462">
  <g id="Group_32" data-name="Group 32" transform="translate(0 0)">
    <path id="Path_73" data-name="Path 73" d="M9,80.623c-.255-.454-.532-.537-1.1-.569S5.927,80,4.7,80s-2.644.016-3.206.053-.839.115-1.1.569A5.544,5.544,0,0,0,0,83.229v0H0a5.524,5.524,0,0,0,.4,2.6c.257.454.534.536,1.1.574s1.979.052,3.207.052,2.641-.019,3.2-.052.84-.12,1.1-.574a5.489,5.489,0,0,0,.4-2.6v0A5.5,5.5,0,0,0,9,80.623ZM3.525,84.993V81.469l2.937,1.762Z" transform="translate(0 -80)" fill="#fff"/>
  </g>
</svg>
